!PADS-POWERPCB-V4.0-BASIC! DESIGN DATABASE ASCII FILE 1.0
*REMARK* MCM-L startup file

*PCB*        GENERAL PARAMETERS OF THE PCB DESIGN

UNITS        1              2=Inches 1=Metric 0=Mils
USERGRID     7500   7500    Space between USER grid points
MAXIMUMLAYER 2              Maximum routing layer 
WORKLEVEL    1              Level items will be created on
DISPLAYLEVEL 1              toggle for displaying working level last
LAYERPAIR    1      2       Layer pair used to route connection
VIAMODE      T              Type of via to use when routing between layers
LINEWIDTH    75000          Width items will be created with
TEXTSIZE     750000 75000   Height and LineWidth text will be created with
JOBTIME      1571           Amount of time spent on this PCB design
DOTGRID      187500 187500  Space between graphic dots
SCALE        32.730          Scale of window expansion
ORIGIN       381000000 381000000  User defined origin location
WINDOWCENTER 381000000 381000000  Point defining the center of the window
BACKUPTIME   20             Number of minutes between database backups
REAL WIDTH   15000          Widths greater then this are displayed real size
ALLSIGONOFF  1              All signal nets displayed on/off
REFNAMESIZE  750000 75000   Height and LineWidth used by part ref. names
HIGHLIGHT    0              Highlight nets flag
JOBNAME      Untitled
CONCOL 1
FBGCOL 1 0
HATCHGRID    381000         Copper pour hatching grid
TEARDROP     2713690        Teardrop tracks
THERLINEWID  571500         Copper pour thermal line width
PSVIAGRID    952500 952500  Push & Shove Via Grid
PADFILLWID   38100          CAM finger pad fill width
THERSMDWID   381000         Copper pour thermal line width for SMD
MINHATAREA   0              Minimum hatch area
HATCHMODE    0              Hatch generation mode
HATCHDISP    0              Hatch display flag
DRILLHOLE    52500          Drill hole checking spacing
MITRERADII   0.5 1.0 1.5 2.0 2.5 3.0 3.5
MITRETYPE    1              Mitring type
HATCHRAD     0.500000       Hatch outline smoothing radius
MITREANG     180 180 180 180 180 180 180
HATCHANG     0              Hatch angle
THERFLAGS    0              Copper pour thermal line flags
DRLOVERSIZE  0              Drill oversize for plated holes
PLANERAD     0.000000       Plane outline smoothing radius
PLANEFLAGS   OUTLINE THERMALS Y Y N N N Y Y Y N N N Y N Y Y N N   Plane and Test Points flags
COMPHEIGHT   0              Board Top Component Height Restriction
KPTHATCHGRID 3810000        Copper pour hatching grid
BOTCMPHEIGHT 0              Board Bottom Component Height Restriction
FANOUTGRID   952500 952500  Fanout grid
FANOUTLENGTH 9525000        Maximum fanout length
ROUTERFLAGS  2090513        Autorouter specific flags
VERIFYFLAGS  1861           Verify Design flags
PLNSEPGAP    228600         Plane separation gap
IDFSHAPELAY  0              IDF shapes layer

TEARDROPDATA     90     90 
*VIA*  ITEMS

*REMARK* NAME  DRILL STACKLINES [DRILL START] [DRILL END]
*REMARK* LEVEL SIZE SHAPE [INNER DIAMETER]

JMPVIA_AAAAA     1409700 3
-2 2095500 R
-1 2667000 R
0  2095500 R

STANDARDVIA      37500 3
-2 300000 R
-1 300000 R
0  300000 R


*MISC*      MISCELLANEOUS PARAMETERS

*REMARK*    PARENT_KEYWORD PARENT_VALUE
*REMARK*  [ { 
*REMARK*       CHILD_KEYWORD CHILD_VALUE
*REMARK*     [ CHILD_KEYWORD CHILD_VALUE
*REMARK*     [ { 
*REMARK*          GRAND_CHILD_KEYWORD GRAND_CHILD_VALUE [...] 
*REMARK*       } ]] 
*REMARK*    } ] 

LAYER DATA
{
LAYER 0
{
LAYER_THICKNESS 0
DIELECTRIC 3.300000
}
LAYER 1
{
LAYER_NAME Top
LAYER_TYPE COMPONENT
PLANE NONE
ROUTING_DIRECTION HORIZONTAL
ASSOCIATED_SILK_SCREEN Silkscreen Top
ASSOCIATED_PASTE_MASK Paste Mask Top
ASSOCIATED_SOLDER_MASK Solder Mask Top
ASSOCIATED_ASSEMBLY Assembly Drawing Top
COMPONENT Y
ROUTABLE Y
VISIBLE Y
SELECTABLE Y
ENABLED Y
COLORS :
{
ROUTE 7
VIA 7
PAD 7
COPPER 7
2DLINE 7
TEXT 7
ERROR 5
TOPCOMPONENT 1
BOTTOMCOMPONENT 0
REFDES 0
PARTTYPE 0
ATTRIBUTE 0
KEEPOUT 0
}
LAYER_THICKNESS 381000
COPPER_THICKNESS 51435
DIELECTRIC 4.300000
COST 0
}
LAYER 2
{
LAYER_NAME Bottom
LAYER_TYPE COMPONENT
PLANE NONE
ROUTING_DIRECTION VERTICAL
ASSOCIATED_SILK_SCREEN Silkscreen Bottom
ASSOCIATED_PASTE_MASK Paste Mask Bottom
ASSOCIATED_SOLDER_MASK Solder Mask Bottom
ASSOCIATED_ASSEMBLY Assembly Drawing Bottom
COMPONENT Y
ROUTABLE Y
VISIBLE Y
SELECTABLE Y
ENABLED Y
COLORS :
{
ROUTE 3
VIA 3
PAD 3
COPPER 3
2DLINE 3
TEXT 3
ERROR 13
TOPCOMPONENT 0
BOTTOMCOMPONENT 14
REFDES 0
PARTTYPE 0
ATTRIBUTE 0
KEEPOUT 0
}
LAYER_THICKNESS 0
COPPER_THICKNESS 51435
DIELECTRIC 3.300000
COST 0
}
LAYER 3
{
LAYER_NAME Layer_3
LAYER_TYPE UNASSIGNED
PLANE NONE
ROUTING_DIRECTION NO_PREFERENCE
VISIBLE Y
SELECTABLE Y
ENABLED Y
COLORS :
{
ROUTE 0
VIA 0
PAD 0
COPPER 0
2DLINE 0
TEXT 0
ERROR 0
TOPCOMPONENT 0
BOTTOMCOMPONENT 0
REFDES 0
PARTTYPE 0
ATTRIBUTE 0
KEEPOUT 0
}
LAYER_THICKNESS 0
COPPER_THICKNESS 0
DIELECTRIC 0.000000
COST 0
}
LAYER 4
{
LAYER_NAME Layer_4
LAYER_TYPE UNASSIGNED
PLANE NONE
ROUTING_DIRECTION NO_PREFERENCE
VISIBLE Y
SELECTABLE Y
ENABLED Y
COLORS :
{
ROUTE 0
VIA 0
PAD 0
COPPER 0
2DLINE 0
TEXT 0
ERROR 0
TOPCOMPONENT 0
BOTTOMCOMPONENT 0
REFDES 0
PARTTYPE 0
ATTRIBUTE 0
KEEPOUT 0
}
LAYER_THICKNESS 0
COPPER_THICKNESS 0
DIELECTRIC 0.000000
COST 0
}
LAYER 5
{
LAYER_NAME Layer_5
LAYER_TYPE UNASSIGNED
PLANE NONE
ROUTING_DIRECTION NO_PREFERENCE
VISIBLE Y
SELECTABLE Y
ENABLED Y
COLORS :
{
ROUTE 0
VIA 0
PAD 0
COPPER 0
2DLINE 0
TEXT 0
ERROR 0
TOPCOMPONENT 0
BOTTOMCOMPONENT 0
REFDES 0
PARTTYPE 0
ATTRIBUTE 0
KEEPOUT 0
}
LAYER_THICKNESS 0
COPPER_THICKNESS 0
DIELECTRIC 0.000000
COST 0
}
LAYER 6
{
LAYER_NAME Layer_6
LAYER_TYPE UNASSIGNED
PLANE NONE
ROUTING_DIRECTION NO_PREFERENCE
VISIBLE Y
SELECTABLE Y
ENABLED Y
COLORS :
{
ROUTE 0
VIA 0
PAD 0
COPPER 0
2DLINE 0
TEXT 0
ERROR 0
TOPCOMPONENT 0
BOTTOMCOMPONENT 0
REFDES 0
PARTTYPE 0
ATTRIBUTE 0
KEEPOUT 0
}
LAYER_THICKNESS 0
COPPER_THICKNESS 0
DIELECTRIC 0.000000
COST 0
}
LAYER 7
{
LAYER_NAME Layer_7
LAYER_TYPE UNASSIGNED
PLANE NONE
ROUTING_DIRECTION NO_PREFERENCE
VISIBLE Y
SELECTABLE Y
ENABLED Y
COLORS :
{
ROUTE 0
VIA 0
PAD 0
COPPER 0
2DLINE 0
TEXT 0
ERROR 0
TOPCOMPONENT 0
BOTTOMCOMPONENT 0
REFDES 0
PARTTYPE 0
ATTRIBUTE 0
KEEPOUT 0
}
LAYER_THICKNESS 0
COPPER_THICKNESS 0
DIELECTRIC 0.000000
COST 0
}
LAYER 8
{
LAYER_NAME Layer_8
LAYER_TYPE UNASSIGNED
PLANE NONE
ROUTING_DIRECTION NO_PREFERENCE
VISIBLE Y
SELECTABLE Y
ENABLED Y
COLORS :
{
ROUTE 0
VIA 0
PAD 0
COPPER 0
2DLINE 0
TEXT 0
ERROR 0
TOPCOMPONENT 0
BOTTOMCOMPONENT 0
REFDES 0
PARTTYPE 0
ATTRIBUTE 0
KEEPOUT 0
}
LAYER_THICKNESS 0
COPPER_THICKNESS 0
DIELECTRIC 0.000000
COST 0
}
LAYER 9
{
LAYER_NAME Layer_9
LAYER_TYPE UNASSIGNED
PLANE NONE
ROUTING_DIRECTION NO_PREFERENCE
VISIBLE Y
SELECTABLE Y
ENABLED Y
COLORS :
{
ROUTE 0
VIA 0
PAD 0
COPPER 0
2DLINE 0
TEXT 0
ERROR 0
TOPCOMPONENT 0
BOTTOMCOMPONENT 0
REFDES 0
PARTTYPE 0
ATTRIBUTE 0
KEEPOUT 0
}
LAYER_THICKNESS 0
COPPER_THICKNESS 0
DIELECTRIC 0.000000
COST 0
}
LAYER 10
{
LAYER_NAME Layer_10
LAYER_TYPE UNASSIGNED
PLANE NONE
ROUTING_DIRECTION NO_PREFERENCE
VISIBLE Y
SELECTABLE Y
ENABLED Y
COLORS :
{
ROUTE 0
VIA 0
PAD 0
COPPER 0
2DLINE 0
TEXT 0
ERROR 0
TOPCOMPONENT 0
BOTTOMCOMPONENT 0
REFDES 0
PARTTYPE 0
ATTRIBUTE 0
KEEPOUT 0
}
LAYER_THICKNESS 0
COPPER_THICKNESS 0
DIELECTRIC 0.000000
COST 0
}
LAYER 11
{
LAYER_NAME Layer_11
LAYER_TYPE UNASSIGNED
PLANE NONE
ROUTING_DIRECTION NO_PREFERENCE
VISIBLE Y
SELECTABLE Y
ENABLED Y
COLORS :
{
ROUTE 0
VIA 0
PAD 0
COPPER 0
2DLINE 0
TEXT 0
ERROR 0
TOPCOMPONENT 0
BOTTOMCOMPONENT 0
REFDES 0
PARTTYPE 0
ATTRIBUTE 0
KEEPOUT 0
}
LAYER_THICKNESS 0
COPPER_THICKNESS 0
DIELECTRIC 0.000000
COST 0
}
LAYER 12
{
LAYER_NAME Layer_12
LAYER_TYPE UNASSIGNED
PLANE NONE
ROUTING_DIRECTION NO_PREFERENCE
VISIBLE Y
SELECTABLE Y
ENABLED Y
COLORS :
{
ROUTE 0
VIA 0
PAD 0
COPPER 0
2DLINE 0
TEXT 0
ERROR 0
TOPCOMPONENT 0
BOTTOMCOMPONENT 0
REFDES 0
PARTTYPE 0
ATTRIBUTE 0
KEEPOUT 0
}
LAYER_THICKNESS 0
COPPER_THICKNESS 0
DIELECTRIC 0.000000
COST 0
}
LAYER 13
{
LAYER_NAME Layer_13
LAYER_TYPE UNASSIGNED
PLANE NONE
ROUTING_DIRECTION NO_PREFERENCE
VISIBLE Y
SELECTABLE Y
ENABLED Y
COLORS :
{
ROUTE 0
VIA 0
PAD 0
COPPER 0
2DLINE 0
TEXT 0
ERROR 0
TOPCOMPONENT 0
BOTTOMCOMPONENT 0
REFDES 0
PARTTYPE 0
ATTRIBUTE 0
KEEPOUT 0
}
LAYER_THICKNESS 0
COPPER_THICKNESS 0
DIELECTRIC 0.000000
COST 0
}
LAYER 14
{
LAYER_NAME Layer_14
LAYER_TYPE UNASSIGNED
PLANE NONE
ROUTING_DIRECTION NO_PREFERENCE
VISIBLE Y
SELECTABLE Y
ENABLED Y
COLORS :
{
ROUTE 0
VIA 0
PAD 0
COPPER 0
2DLINE 0
TEXT 0
ERROR 0
TOPCOMPONENT 0
BOTTOMCOMPONENT 0
REFDES 0
PARTTYPE 0
ATTRIBUTE 0
KEEPOUT 0
}
LAYER_THICKNESS 0
COPPER_THICKNESS 0
DIELECTRIC 0.000000
COST 0
}
LAYER 15
{
LAYER_NAME Layer_15
LAYER_TYPE UNASSIGNED
PLANE NONE
ROUTING_DIRECTION NO_PREFERENCE
VISIBLE Y
SELECTABLE Y
ENABLED Y
COLORS :
{
ROUTE 0
VIA 0
PAD 0
COPPER 0
2DLINE 0
TEXT 0
ERROR 0
TOPCOMPONENT 0
BOTTOMCOMPONENT 0
REFDES 0
PARTTYPE 0
ATTRIBUTE 0
KEEPOUT 0
}
LAYER_THICKNESS 0
COPPER_THICKNESS 0
DIELECTRIC 0.000000
COST 0
}
LAYER 16
{
LAYER_NAME Layer_16
LAYER_TYPE UNASSIGNED
PLANE NONE
ROUTING_DIRECTION NO_PREFERENCE
VISIBLE Y
SELECTABLE Y
ENABLED Y
COLORS :
{
ROUTE 0
VIA 0
PAD 0
COPPER 0
2DLINE 0
TEXT 0
ERROR 0
TOPCOMPONENT 0
BOTTOMCOMPONENT 0
REFDES 0
PARTTYPE 0
ATTRIBUTE 0
KEEPOUT 0
}
LAYER_THICKNESS 0
COPPER_THICKNESS 0
DIELECTRIC 0.000000
COST 0
}
LAYER 17
{
LAYER_NAME Layer_17
LAYER_TYPE UNASSIGNED
PLANE NONE
ROUTING_DIRECTION NO_PREFERENCE
VISIBLE Y
SELECTABLE Y
ENABLED Y
COLORS :
{
ROUTE 0
VIA 0
PAD 0
COPPER 0
2DLINE 0
TEXT 0
ERROR 0
TOPCOMPONENT 0
BOTTOMCOMPONENT 0
REFDES 0
PARTTYPE 0
ATTRIBUTE 0
KEEPOUT 0
}
LAYER_THICKNESS 0
COPPER_THICKNESS 0
DIELECTRIC 0.000000
COST 0
}
LAYER 18
{
LAYER_NAME Layer_18
LAYER_TYPE UNASSIGNED
PLANE NONE
ROUTING_DIRECTION NO_PREFERENCE
VISIBLE Y
SELECTABLE Y
ENABLED Y
COLORS :
{
ROUTE 0
VIA 0
PAD 0
COPPER 0
2DLINE 0
TEXT 0
ERROR 0
TOPCOMPONENT 0
BOTTOMCOMPONENT 0
REFDES 0
PARTTYPE 0
ATTRIBUTE 0
KEEPOUT 0
}
LAYER_THICKNESS 0
COPPER_THICKNESS 0
DIELECTRIC 0.000000
COST 0
}
LAYER 19
{
LAYER_NAME Layer_19
LAYER_TYPE UNASSIGNED
PLANE NONE
ROUTING_DIRECTION NO_PREFERENCE
VISIBLE Y
SELECTABLE Y
ENABLED Y
COLORS :
{
ROUTE 0
VIA 0
PAD 0
COPPER 0
2DLINE 0
TEXT 0
ERROR 0
TOPCOMPONENT 0
BOTTOMCOMPONENT 0
REFDES 0
PARTTYPE 0
ATTRIBUTE 0
KEEPOUT 0
}
LAYER_THICKNESS 0
COPPER_THICKNESS 0
DIELECTRIC 0.000000
COST 0
}
LAYER 20
{
LAYER_NAME Layer_20
LAYER_TYPE UNASSIGNED
PLANE NONE
ROUTING_DIRECTION NO_PREFERENCE
VISIBLE Y
SELECTABLE Y
ENABLED Y
COLORS :
{
ROUTE 0
VIA 0
PAD 0
COPPER 0
2DLINE 0
TEXT 0
ERROR 0
TOPCOMPONENT 0
BOTTOMCOMPONENT 0
REFDES 0
PARTTYPE 0
ATTRIBUTE 0
KEEPOUT 0
}
LAYER_THICKNESS 0
COPPER_THICKNESS 0
DIELECTRIC 0.000000
COST 0
}
LAYER 21
{
LAYER_NAME Solder Mask Top
LAYER_TYPE SOLDER_MASK
PLANE NONE
ROUTING_DIRECTION NO_PREFERENCE
VISIBLE Y
SELECTABLE Y
ENABLED Y
COLORS :
{
ROUTE 0
VIA 0
PAD 0
COPPER 0
2DLINE 0
TEXT 0
ERROR 0
TOPCOMPONENT 0
BOTTOMCOMPONENT 0
REFDES 0
PARTTYPE 0
ATTRIBUTE 0
KEEPOUT 0
}
LAYER_THICKNESS 0
COPPER_THICKNESS 0
DIELECTRIC 0.000000
COST 0
}
LAYER 22
{
LAYER_NAME Paste Mask Bottom
LAYER_TYPE PASTE_MASK
PLANE NONE
ROUTING_DIRECTION NO_PREFERENCE
VISIBLE Y
SELECTABLE Y
ENABLED Y
COLORS :
{
ROUTE 0
VIA 0
PAD 0
COPPER 0
2DLINE 0
TEXT 0
ERROR 0
TOPCOMPONENT 0
BOTTOMCOMPONENT 0
REFDES 0
PARTTYPE 0
ATTRIBUTE 0
KEEPOUT 0
}
LAYER_THICKNESS 0
COPPER_THICKNESS 0
DIELECTRIC 0.000000
COST 0
}
LAYER 23
{
LAYER_NAME Paste Mask Top
LAYER_TYPE PASTE_MASK
PLANE NONE
ROUTING_DIRECTION NO_PREFERENCE
VISIBLE Y
SELECTABLE Y
ENABLED Y
COLORS :
{
ROUTE 0
VIA 0
PAD 0
COPPER 0
2DLINE 0
TEXT 0
ERROR 0
TOPCOMPONENT 0
BOTTOMCOMPONENT 0
REFDES 0
PARTTYPE 0
ATTRIBUTE 0
KEEPOUT 0
}
LAYER_THICKNESS 0
COPPER_THICKNESS 0
DIELECTRIC 0.000000
COST 0
}
LAYER 24
{
LAYER_NAME Drill Drawing
LAYER_TYPE DRILL
PLANE NONE
ROUTING_DIRECTION NO_PREFERENCE
VISIBLE Y
SELECTABLE Y
ENABLED Y
COLORS :
{
ROUTE 0
VIA 0
PAD 0
COPPER 0
2DLINE 5
TEXT 5
ERROR 0
TOPCOMPONENT 0
BOTTOMCOMPONENT 0
REFDES 0
PARTTYPE 0
ATTRIBUTE 0
KEEPOUT 0
}
LAYER_THICKNESS 0
COPPER_THICKNESS 0
DIELECTRIC 0.000000
COST 0
}
LAYER 25
{
LAYER_NAME Layer_25
LAYER_TYPE UNASSIGNED
PLANE NONE
ROUTING_DIRECTION NO_PREFERENCE
VISIBLE Y
SELECTABLE Y
ENABLED Y
COLORS :
{
ROUTE 0
VIA 0
PAD 0
COPPER 0
2DLINE 0
TEXT 0
ERROR 0
TOPCOMPONENT 0
BOTTOMCOMPONENT 0
REFDES 0
PARTTYPE 0
ATTRIBUTE 0
KEEPOUT 0
}
LAYER_THICKNESS 0
COPPER_THICKNESS 0
DIELECTRIC 0.000000
COST 0
}
LAYER 26
{
LAYER_NAME Silkscreen Top
LAYER_TYPE SILK_SCREEN
PLANE NONE
ROUTING_DIRECTION NO_PREFERENCE
VISIBLE Y
SELECTABLE Y
ENABLED Y
COLORS :
{
ROUTE 0
VIA 0
PAD 0
COPPER 0
2DLINE 0
TEXT 0
ERROR 0
TOPCOMPONENT 0
BOTTOMCOMPONENT 0
REFDES 0
PARTTYPE 0
ATTRIBUTE 0
KEEPOUT 0
}
LAYER_THICKNESS 0
COPPER_THICKNESS 0
DIELECTRIC 0.000000
COST 0
}
LAYER 27
{
LAYER_NAME Assembly Drawing Top
LAYER_TYPE ASSEMBLY
PLANE NONE
ROUTING_DIRECTION NO_PREFERENCE
VISIBLE Y
SELECTABLE Y
ENABLED Y
COLORS :
{
ROUTE 0
VIA 0
PAD 0
COPPER 0
2DLINE 0
TEXT 0
ERROR 0
TOPCOMPONENT 0
BOTTOMCOMPONENT 0
REFDES 0
PARTTYPE 0
ATTRIBUTE 0
KEEPOUT 0
}
LAYER_THICKNESS 0
COPPER_THICKNESS 0
DIELECTRIC 0.000000
COST 0
}
LAYER 28
{
LAYER_NAME Solder Mask Bottom
LAYER_TYPE SOLDER_MASK
PLANE NONE
ROUTING_DIRECTION NO_PREFERENCE
VISIBLE Y
SELECTABLE Y
ENABLED Y
COLORS :
{
ROUTE 0
VIA 0
PAD 0
COPPER 0
2DLINE 0
TEXT 0
ERROR 0
TOPCOMPONENT 0
BOTTOMCOMPONENT 0
REFDES 0
PARTTYPE 0
ATTRIBUTE 0
KEEPOUT 0
}
LAYER_THICKNESS 0
COPPER_THICKNESS 0
DIELECTRIC 0.000000
COST 0
}
LAYER 29
{
LAYER_NAME Silkscreen Bottom
LAYER_TYPE SILK_SCREEN
PLANE NONE
ROUTING_DIRECTION NO_PREFERENCE
VISIBLE Y
SELECTABLE Y
ENABLED Y
COLORS :
{
ROUTE 0
VIA 0
PAD 0
COPPER 0
2DLINE 0
TEXT 0
ERROR 0
TOPCOMPONENT 0
BOTTOMCOMPONENT 0
REFDES 0
PARTTYPE 0
ATTRIBUTE 0
KEEPOUT 0
}
LAYER_THICKNESS 0
COPPER_THICKNESS 0
DIELECTRIC 0.000000
COST 0
}
LAYER 30
{
LAYER_NAME Assembly Drawing Bottom
LAYER_TYPE ASSEMBLY
PLANE NONE
ROUTING_DIRECTION NO_PREFERENCE
VISIBLE Y
SELECTABLE Y
ENABLED Y
COLORS :
{
ROUTE 0
VIA 0
PAD 0
COPPER 0
2DLINE 0
TEXT 0
ERROR 0
TOPCOMPONENT 0
BOTTOMCOMPONENT 0
REFDES 0
PARTTYPE 0
ATTRIBUTE 0
KEEPOUT 0
}
LAYER_THICKNESS 0
COPPER_THICKNESS 0
DIELECTRIC 0.000000
COST 0
}
}
SELECTABILITY DATA
{
PARTS Y
PINS Y
TRACES Y
VIAS Y
TACKS Y
UNROUTED Y
EDGES Y
NODES Y
SHAPES Y
DIMENSIONS Y
TEXT Y
AREA_PARTS Y
AREA_PINS Y
AREA_TRACES Y
AREA_VIAS Y
AREA_TACKS Y
AREA_UNROUTED Y
AREA_EDGES Y
AREA_NODES Y
AREA_SHAPES Y
AREA_DIMENSIONS Y
AREA_TEXT Y
}
VISIBILITY DATA
{
PADS Y
TRACKS Y
VIAS Y
COPPER Y
LINES Y
TEXT Y
ERRORS Y
CLUSTER Y
TOP_COMPONENT Y
BOTTOM_COMPONENT Y
PLANE_THERMAL Y
SELECTION_COLOR 15
HIGHLIGHT_COLOR 14
FIXED_COLOR 3
}

*MISC*      MISCELLANEOUS PARAMETERS

*REMARK*    PARENT_KEYWORD PARENT_VALUE
*REMARK*  [ { 
*REMARK*       CHILD_KEYWORD CHILD_VALUE
*REMARK*     [ CHILD_KEYWORD CHILD_VALUE
*REMARK*     [ { 
*REMARK*          GRAND_CHILD_KEYWORD GRAND_CHILD_VALUE [...] 
*REMARK*       } ]] 
*REMARK*    } ] 

RULES_SECTION PARENT
{
DESIGN RULES
{
RULE_SET (1)
{
FOR :
{
DEFAULT :
}
AGAINST :
{
DEFAULT :
}
LAYER 0
CLEARANCE_RULE :
{
TRACK_TO_TRACK 52500
VIA_TO_TRACK 52500
VIA_TO_VIA 0
PAD_TO_TRACK 52500
PAD_TO_VIA 0
PAD_TO_PAD 0
SMD_TO_TRACK 52500
SMD_TO_VIA 0
SMD_TO_PAD 0
SMD_TO_SMD 0
COPPER_TO_TRACK 0
COPPER_TO_VIA 0
COPPER_TO_PAD 0
COPPER_TO_SMD 0
TEXT_TO_TRACK 0
TEXT_TO_VIA 0
TEXT_TO_PAD 0
TEXT_TO_SMD 0
OUTLINE_TO_TRACK 0
OUTLINE_TO_VIA 0
OUTLINE_TO_PAD 0
OUTLINE_TO_SMD 0
DRILL_TO_TRACK 0
DRILL_TO_VIA 0
DRILL_TO_PAD 0
DRILL_TO_SMD 0
SAME_NET_SMD_TO_VIA 52500
SAME_NET_SMD_TO_CRN 52500
SAME_NET_VIA_TO_VIA 52500
SAME_NET_PAD_TO_CRN 52500
MIN_TRACK_WIDTH 52500
REC_TRACK_WIDTH 75000
MAX_TRACK_WIDTH 300000
DRILL_TO_DRILL 52500
BODY_TO_BODY 52500
SAME_NET_TRACK_TO_CRN 0
}
}
RULE_SET (2)
{
FOR :
{
DEFAULT :
}
AGAINST :
{
DEFAULT :
}
LAYER 0
HIGH_SPEED_RULE :
{
MIN_LENGTH 0
MAX_LENGTH 1904999936
STUB_LENGTH 38100000
PARALLEL_LENGTH 38100000
PARALLEL_GAP 7620000
TANDEM_LENGTH 38100000
TANDEM_GAP 7620000
MIN_DELAY 0.000000
MAX_DELAY 10.000000
MIN_CAPACITANCE 0.000000
MAX_CAPACITANCE 10.000000
MIN_IMPEDANCE 50.000000
MAX_IMPEDANCE 150.000000
SHIELD_NET *
SHIELD_GAP 7620000
MATCH_LENGTH_TOLERANCE -7620000
}
}
RULE_SET (3)
{
FOR :
{
DEFAULT :
}
AGAINST :
{
DEFAULT :
}
LAYER 0
ROUTE_RULE :
{
LENGTH_MINIMIZATION_TYPE 1
COPPER_SHARE Y
AUTO_ROUTE Y
RIPUP Y
SHOVE Y
ROUTE_PRIORITY 3
VALID_LAYER 1
VALID_LAYER 2
VALID_VIA_TYPE STANDARDVIA
}
}
}
}

*MISC*      MISCELLANEOUS PARAMETERS

ATTRIBUTES DICTIONARY
{
ATTRIBUTE Value
{
TYPE FREETEXT N
INHERITANCE PART PARTTYPE
ECO_REGISTRATION Y
READONLY N
SYSTEM Y
HIDDEN N
}
ATTRIBUTE Tolerance
{
TYPE FREETEXT N
INHERITANCE PART PARTTYPE
ECO_REGISTRATION Y
READONLY N
SYSTEM Y
HIDDEN N
}
ATTRIBUTE Part Number
{
TYPE FREETEXT N
INHERITANCE PART PARTTYPE
ECO_REGISTRATION Y
READONLY N
SYSTEM N
HIDDEN N
}
ATTRIBUTE Description
{
TYPE FREETEXT N
INHERITANCE PART PARTTYPE
ECO_REGISTRATION Y
READONLY N
SYSTEM N
HIDDEN N
}
ATTRIBUTE Cost
{
TYPE FREETEXT N
INHERITANCE PART PARTTYPE
ECO_REGISTRATION Y
READONLY N
SYSTEM N
HIDDEN N
}
ATTRIBUTE Manufacturer #1
{
TYPE FREETEXT N
INHERITANCE PART PARTTYPE
ECO_REGISTRATION Y
READONLY N
SYSTEM N
HIDDEN N
}
ATTRIBUTE Manufacturer #2
{
TYPE FREETEXT N
INHERITANCE PART PARTTYPE
ECO_REGISTRATION Y
READONLY N
SYSTEM N
HIDDEN N
}
ATTRIBUTE ASSEMBLY_OPTIONS
{
TYPE FREETEXT N
INHERITANCE PCB
INHERITANCE PART
INHERITANCE JUMPER
ECO_REGISTRATION Y
READONLY Y
SYSTEM Y
HIDDEN Y
}
ATTRIBUTE PowerGround
{
TYPE BOOLEAN
INHERITANCE NET NETCLASS PCB
ECO_REGISTRATION Y
READONLY N
SYSTEM Y
HIDDEN N
}
ATTRIBUTE Voltage
{
TYPE QUANTITY
QUANTITY Voltage
ABBR V
UNIT Volt
MIN -100kV
MAX 100kV
INHERITANCE NET NETCLASS
ECO_REGISTRATION Y
READONLY N
SYSTEM Y
HIDDEN N
}
ATTRIBUTE Geometry.Height
{
TYPE QUANTITY
QUANTITY Size/Dimension
ABBR 
UNIT 
MIN 0dbunit
MAX 952500000dbunit
INHERITANCE PCB
INHERITANCE PART PARTTYPE DECAL
ECO_REGISTRATION N
READONLY N
SYSTEM Y
HIDDEN N
}
ATTRIBUTE DFT.Nail Count Per Net
{
TYPE INTEGER
MIN 0
MAX 2000
INHERITANCE NET NETCLASS PCB
ECO_REGISTRATION Y
READONLY N
SYSTEM Y
HIDDEN N
}
ATTRIBUTE DFT.Nail Diameter
{
TYPE FREETEXT N
INHERITANCE PIN
INHERITANCE VIA
ECO_REGISTRATION N
READONLY N
SYSTEM Y
HIDDEN N
}
ATTRIBUTE DFT.Nail Number
{
TYPE FREETEXT N
INHERITANCE PIN
INHERITANCE VIA
ECO_REGISTRATION N
READONLY N
SYSTEM Y
HIDDEN N
}
ATTRIBUTE DFT.Probe to Trace Clearance
{
TYPE QUANTITY
QUANTITY Size/Dimension
ABBR 
UNIT 
MIN 0dbunit
MAX 38100000dbunit
INHERITANCE PCB
ECO_REGISTRATION N
READONLY Y
SYSTEM Y
HIDDEN Y
}
ATTRIBUTE DFT.Probe to Pad Clearance
{
TYPE QUANTITY
QUANTITY Size/Dimension
ABBR 
UNIT 
MIN 0dbunit
MAX 38100000dbunit
INHERITANCE PCB
ECO_REGISTRATION N
READONLY Y
SYSTEM Y
HIDDEN Y
}
ATTRIBUTE DFT.Generate Test Points
{
TYPE BOOLEAN
INHERITANCE PCB
ECO_REGISTRATION N
READONLY Y
SYSTEM Y
HIDDEN Y
}
ATTRIBUTE DFT.Allow Stubs
{
TYPE BOOLEAN
INHERITANCE PCB
ECO_REGISTRATION N
READONLY Y
SYSTEM Y
HIDDEN Y
}
ATTRIBUTE DFT.Stub Length
{
TYPE QUANTITY
QUANTITY Size/Dimension
ABBR 
UNIT 
MIN 0dbunit
MAX 76200000dbunit
INHERITANCE PCB
ECO_REGISTRATION N
READONLY Y
SYSTEM Y
HIDDEN Y
}
ATTRIBUTE DFT.Use Via Grid
{
TYPE BOOLEAN
INHERITANCE PCB
ECO_REGISTRATION N
READONLY Y
SYSTEM Y
HIDDEN Y
}
ATTRIBUTE DFT.Grid X-Coordinate
{
TYPE QUANTITY
QUANTITY Size/Dimension
ABBR 
UNIT 
MIN 0dbunit
MAX 76200000dbunit
INHERITANCE PCB
ECO_REGISTRATION N
READONLY Y
SYSTEM Y
HIDDEN Y
}
ATTRIBUTE DFT.Grid Y-Coordinate
{
TYPE QUANTITY
QUANTITY Size/Dimension
ABBR 
UNIT 
MIN 0dbunit
MAX 76200000dbunit
INHERITANCE PCB
ECO_REGISTRATION N
READONLY Y
SYSTEM Y
HIDDEN Y
}
ATTRIBUTE HyperLynx.Model
{
TYPE FREETEXT N
INHERITANCE PART PARTTYPE
ECO_REGISTRATION Y
READONLY N
SYSTEM Y
HIDDEN N
}
ATTRIBUTE HyperLynx.Model File
{
TYPE FREETEXT N
INHERITANCE PART PARTTYPE
ECO_REGISTRATION Y
READONLY N
SYSTEM Y
HIDDEN N
}
ATTRIBUTE HyperLynx.Sim Direction
{
TYPE LIST N
{
SIM_BOTH
SIM_IN
SIM_OUT
}
INHERITANCE PIN
ECO_REGISTRATION Y
READONLY N
SYSTEM Y
HIDDEN N
}
ATTRIBUTE HyperLynx.Frequency
{
TYPE QUANTITY
QUANTITY Frequency
ABBR Hz
UNIT Hertz
MIN 0Hz
MAX 1000GHz
INHERITANCE NET NETCLASS
ECO_REGISTRATION Y
READONLY N
SYSTEM Y
HIDDEN N
}
ATTRIBUTE HyperLynx.Duty Cycle
{
TYPE QUANTITY
QUANTITY 
ABBR %
UNIT percent
MIN 0%
MAX 100%
INHERITANCE NET NETCLASS
ECO_REGISTRATION Y
READONLY N
SYSTEM Y
HIDDEN N
}
ATTRIBUTE HyperLynx.Signal Type
{
TYPE LIST N
{
Address
Analog High Speed
Analog Low Speed
Clock
Data
Do Not Analyze
Power Supply
Strobe
}
INHERITANCE NET NETCLASS
ECO_REGISTRATION Y
READONLY N
SYSTEM Y
HIDDEN N
}
ATTRIBUTE HyperLynx.Default IC.Model
{
TYPE FREETEXT N
INHERITANCE NET NETCLASS
ECO_REGISTRATION Y
READONLY N
SYSTEM Y
HIDDEN N
}
ATTRIBUTE HyperLynx.Default IC.Model File
{
TYPE FREETEXT N
INHERITANCE NET NETCLASS
ECO_REGISTRATION Y
READONLY N
SYSTEM Y
HIDDEN N
}
ATTRIBUTE HyperLynx.Default IC.Model Pin
{
TYPE FREETEXT N
INHERITANCE NET NETCLASS
ECO_REGISTRATION Y
READONLY N
SYSTEM Y
HIDDEN N
}
ATTRIBUTE Strategy.SplitPairs.Pass
{
TYPE LIST N
{
No
Yes
Done
}
INHERITANCE PCB
ECO_REGISTRATION N
READONLY Y
SYSTEM Y
HIDDEN Y
}
ATTRIBUTE Strategy.SplitPairs.Protect
{
TYPE BOOLEAN
INHERITANCE PCB
ECO_REGISTRATION N
READONLY Y
SYSTEM Y
HIDDEN Y
}
ATTRIBUTE Strategy.SplitPairs.Pause
{
TYPE BOOLEAN
INHERITANCE PCB
ECO_REGISTRATION N
READONLY Y
SYSTEM Y
HIDDEN Y
}
ATTRIBUTE Strategy.SplitPairs.Intensity
{
TYPE LIST N
{
Low
Medium
High
}
INHERITANCE PCB
ECO_REGISTRATION N
READONLY Y
SYSTEM Y
HIDDEN Y
}
ATTRIBUTE Strategy.SplitPairs.Priority
{
TYPE INTEGER
MIN 0
INHERITANCE NET NETCLASS PCB
INHERITANCE PART
ECO_REGISTRATION N
READONLY Y
SYSTEM Y
HIDDEN Y
}
ATTRIBUTE Strategy.SplitPairs.PlanePriority
{
TYPE INTEGER
MIN 0
INHERITANCE PCB
ECO_REGISTRATION N
READONLY Y
SYSTEM Y
HIDDEN Y
}
ATTRIBUTE Strategy.Fanout.Pass
{
TYPE LIST N
{
No
Yes
Done
}
INHERITANCE PCB
ECO_REGISTRATION N
READONLY Y
SYSTEM Y
HIDDEN Y
}
ATTRIBUTE Strategy.Fanout.Protect
{
TYPE BOOLEAN
INHERITANCE PCB
ECO_REGISTRATION N
READONLY Y
SYSTEM Y
HIDDEN Y
}
ATTRIBUTE Strategy.Fanout.Pause
{
TYPE BOOLEAN
INHERITANCE PCB
ECO_REGISTRATION N
READONLY Y
SYSTEM Y
HIDDEN Y
}
ATTRIBUTE Strategy.Fanout.Intensity
{
TYPE LIST N
{
Low
Medium
High
}
INHERITANCE PCB
ECO_REGISTRATION N
READONLY Y
SYSTEM Y
HIDDEN Y
}
ATTRIBUTE Strategy.Fanout.Priority
{
TYPE INTEGER
MIN 0
INHERITANCE NET NETCLASS PCB
INHERITANCE PART
ECO_REGISTRATION N
READONLY Y
SYSTEM Y
HIDDEN Y
}
ATTRIBUTE Strategy.Fanout.PlanePriority
{
TYPE INTEGER
MIN 0
INHERITANCE PCB
ECO_REGISTRATION N
READONLY Y
SYSTEM Y
HIDDEN Y
}
ATTRIBUTE Strategy.Patterns.Pass
{
TYPE LIST N
{
No
Yes
Done
}
INHERITANCE PCB
ECO_REGISTRATION N
READONLY Y
SYSTEM Y
HIDDEN Y
}
ATTRIBUTE Strategy.Patterns.Protect
{
TYPE BOOLEAN
INHERITANCE PCB
ECO_REGISTRATION N
READONLY Y
SYSTEM Y
HIDDEN Y
}
ATTRIBUTE Strategy.Patterns.Pause
{
TYPE BOOLEAN
INHERITANCE PCB
ECO_REGISTRATION N
READONLY Y
SYSTEM Y
HIDDEN Y
}
ATTRIBUTE Strategy.Patterns.Intensity
{
TYPE LIST N
{
Low
Medium
High
}
INHERITANCE PCB
ECO_REGISTRATION N
READONLY Y
SYSTEM Y
HIDDEN Y
}
ATTRIBUTE Strategy.Patterns.Priority
{
TYPE INTEGER
MIN 0
INHERITANCE NET NETCLASS PCB
INHERITANCE PART
ECO_REGISTRATION N
READONLY Y
SYSTEM Y
HIDDEN Y
}
ATTRIBUTE Strategy.Patterns.PlanePriority
{
TYPE INTEGER
MIN 0
INHERITANCE PCB
ECO_REGISTRATION N
READONLY Y
SYSTEM Y
HIDDEN Y
}
ATTRIBUTE Strategy.Route.Pass
{
TYPE LIST N
{
No
Yes
Done
}
INHERITANCE PCB
ECO_REGISTRATION N
READONLY Y
SYSTEM Y
HIDDEN Y
}
ATTRIBUTE Strategy.Route.Protect
{
TYPE BOOLEAN
INHERITANCE PCB
ECO_REGISTRATION N
READONLY Y
SYSTEM Y
HIDDEN Y
}
ATTRIBUTE Strategy.Route.Pause
{
TYPE BOOLEAN
INHERITANCE PCB
ECO_REGISTRATION N
READONLY Y
SYSTEM Y
HIDDEN Y
}
ATTRIBUTE Strategy.Route.Intensity
{
TYPE LIST N
{
Low
Medium
High
}
INHERITANCE PCB
ECO_REGISTRATION N
READONLY Y
SYSTEM Y
HIDDEN Y
}
ATTRIBUTE Strategy.Route.Priority
{
TYPE INTEGER
MIN 0
INHERITANCE NET NETCLASS PCB
INHERITANCE PART
ECO_REGISTRATION N
READONLY Y
SYSTEM Y
HIDDEN Y
}
ATTRIBUTE Strategy.Route.PlanePriority
{
TYPE INTEGER
MIN 0
INHERITANCE PCB
ECO_REGISTRATION N
READONLY Y
SYSTEM Y
HIDDEN Y
}
ATTRIBUTE Strategy.Optimize.Pass
{
TYPE LIST N
{
No
Yes
Done
}
INHERITANCE PCB
ECO_REGISTRATION N
READONLY Y
SYSTEM Y
HIDDEN Y
}
ATTRIBUTE Strategy.Optimize.Protect
{
TYPE BOOLEAN
INHERITANCE PCB
ECO_REGISTRATION N
READONLY Y
SYSTEM Y
HIDDEN Y
}
ATTRIBUTE Strategy.Optimize.Pause
{
TYPE BOOLEAN
INHERITANCE PCB
ECO_REGISTRATION N
READONLY Y
SYSTEM Y
HIDDEN Y
}
ATTRIBUTE Strategy.Optimize.Intensity
{
TYPE LIST N
{
Low
Medium
High
}
INHERITANCE PCB
ECO_REGISTRATION N
READONLY Y
SYSTEM Y
HIDDEN Y
}
ATTRIBUTE Strategy.Optimize.Priority
{
TYPE INTEGER
MIN 0
INHERITANCE NET NETCLASS PCB
INHERITANCE PART
ECO_REGISTRATION N
READONLY Y
SYSTEM Y
HIDDEN Y
}
ATTRIBUTE Strategy.Optimize.PlanePriority
{
TYPE INTEGER
MIN 0
INHERITANCE PCB
ECO_REGISTRATION N
READONLY Y
SYSTEM Y
HIDDEN Y
}
ATTRIBUTE Strategy.Miters.Pass
{
TYPE LIST N
{
No
Yes
Done
}
INHERITANCE PCB
ECO_REGISTRATION N
READONLY Y
SYSTEM Y
HIDDEN Y
}
ATTRIBUTE Strategy.Miters.Protect
{
TYPE BOOLEAN
INHERITANCE PCB
ECO_REGISTRATION N
READONLY Y
SYSTEM Y
HIDDEN Y
}
ATTRIBUTE Strategy.Miters.Pause
{
TYPE BOOLEAN
INHERITANCE PCB
ECO_REGISTRATION N
READONLY Y
SYSTEM Y
HIDDEN Y
}
ATTRIBUTE Strategy.Miters.Intensity
{
TYPE LIST N
{
Low
Medium
High
}
INHERITANCE PCB
ECO_REGISTRATION N
READONLY Y
SYSTEM Y
HIDDEN Y
}
ATTRIBUTE Strategy.Miters.Priority
{
TYPE INTEGER
MIN 0
INHERITANCE NET NETCLASS PCB
INHERITANCE PART
ECO_REGISTRATION N
READONLY Y
SYSTEM Y
HIDDEN Y
}
ATTRIBUTE Strategy.Miters.PlanePriority
{
TYPE INTEGER
MIN 0
INHERITANCE PCB
ECO_REGISTRATION N
READONLY Y
SYSTEM Y
HIDDEN Y
}
ATTRIBUTE Strategy.TestPoint.Pass
{
TYPE LIST N
{
No
Yes
Done
}
INHERITANCE PCB
ECO_REGISTRATION N
READONLY Y
SYSTEM Y
HIDDEN Y
}
ATTRIBUTE Strategy.TestPoint.Protect
{
TYPE BOOLEAN
INHERITANCE PCB
ECO_REGISTRATION N
READONLY Y
SYSTEM Y
HIDDEN Y
}
ATTRIBUTE Strategy.TestPoint.Pause
{
TYPE BOOLEAN
INHERITANCE PCB
ECO_REGISTRATION N
READONLY Y
SYSTEM Y
HIDDEN Y
}
ATTRIBUTE Strategy.TestPoint.Intensity
{
TYPE LIST N
{
Low
Medium
High
}
INHERITANCE PCB
ECO_REGISTRATION N
READONLY Y
SYSTEM Y
HIDDEN Y
}
ATTRIBUTE Strategy.TestPoint.Priority
{
TYPE INTEGER
MIN 0
INHERITANCE NET NETCLASS PCB
INHERITANCE PART
ECO_REGISTRATION N
READONLY Y
SYSTEM Y
HIDDEN Y
}
ATTRIBUTE Strategy.TestPoint.PlanePriority
{
TYPE INTEGER
MIN 0
INHERITANCE PCB
ECO_REGISTRATION N
READONLY Y
SYSTEM Y
HIDDEN Y
}
ATTRIBUTE DIE.FormatId
{
TYPE FREETEXT N
INHERITANCE DECAL
ECO_REGISTRATION N
READONLY Y
SYSTEM Y
HIDDEN Y
}
ATTRIBUTE DIE.ChipLength
{
TYPE FREETEXT N
INHERITANCE DECAL
ECO_REGISTRATION N
READONLY Y
SYSTEM Y
HIDDEN Y
}
ATTRIBUTE DIE.ChipWidth
{
TYPE FREETEXT N
INHERITANCE DECAL
ECO_REGISTRATION N
READONLY Y
SYSTEM Y
HIDDEN Y
}
ATTRIBUTE DIE.ChipHeight
{
TYPE FREETEXT N
INHERITANCE DECAL
ECO_REGISTRATION N
READONLY Y
SYSTEM Y
HIDDEN Y
}
ATTRIBUTE DIE.WBRules.MinLength
{
TYPE FREETEXT N
INHERITANCE DECAL
ECO_REGISTRATION N
READONLY Y
SYSTEM Y
HIDDEN Y
}
ATTRIBUTE DIE.WBRules.MaxLength
{
TYPE FREETEXT N
INHERITANCE DECAL
ECO_REGISTRATION N
READONLY Y
SYSTEM Y
HIDDEN Y
}
ATTRIBUTE DIE.WBRules.WToWDistance
{
TYPE FREETEXT N
INHERITANCE DECAL
ECO_REGISTRATION N
READONLY Y
SYSTEM Y
HIDDEN Y
}
ATTRIBUTE DIE.WBRules.WBtoPad
{
TYPE FREETEXT N
INHERITANCE DECAL
ECO_REGISTRATION N
READONLY Y
SYSTEM Y
HIDDEN Y
}
ATTRIBUTE DIE.WBRules.MaxAngle
{
TYPE FREETEXT N
INHERITANCE DECAL
ECO_REGISTRATION N
READONLY Y
SYSTEM Y
HIDDEN Y
}
ATTRIBUTE DIE.SBPCount
{
TYPE FREETEXT N
INHERITANCE DECAL
ECO_REGISTRATION N
READONLY Y
SYSTEM Y
HIDDEN Y
}
ATTRIBUTE DIE.SBP1
{
TYPE FREETEXT N
INHERITANCE DECAL
ECO_REGISTRATION N
READONLY Y
SYSTEM Y
HIDDEN Y
}
ATTRIBUTE DIE.CBPCount
{
TYPE FREETEXT N
INHERITANCE DECAL
ECO_REGISTRATION N
READONLY Y
SYSTEM Y
HIDDEN Y
}
ATTRIBUTE DIE.CBP1
{
TYPE FREETEXT N
INHERITANCE DECAL
ECO_REGISTRATION N
READONLY Y
SYSTEM Y
HIDDEN Y
}
ATTRIBUTE DIE.WBCount
{
TYPE FREETEXT N
INHERITANCE DECAL
ECO_REGISTRATION N
READONLY Y
SYSTEM Y
HIDDEN Y
}
ATTRIBUTE DIE.WB1
{
TYPE FREETEXT N
INHERITANCE DECAL
ECO_REGISTRATION N
READONLY Y
SYSTEM Y
HIDDEN Y
}
ATTRIBUTE DIE.SBPGuideCount
{
TYPE FREETEXT N
INHERITANCE DECAL
ECO_REGISTRATION N
READONLY Y
SYSTEM Y
HIDDEN Y
}
ATTRIBUTE DIE.SBPGuide1
{
TYPE FREETEXT N
INHERITANCE DECAL
ECO_REGISTRATION N
READONLY Y
SYSTEM Y
HIDDEN Y
}
ATTRIBUTE DIE.CBPAssignment1
{
TYPE FREETEXT N
INHERITANCE DECAL
ECO_REGISTRATION N
READONLY Y
SYSTEM Y
HIDDEN Y
}
ATTRIBUTE AutoDimensioning.Marker_Shape
{
TYPE FREETEXT N
INHERITANCE PCB
ECO_REGISTRATION N
READONLY Y
SYSTEM Y
HIDDEN Y
}
ATTRIBUTE AutoDimensioning.Text_NumberPrecision
{
TYPE FREETEXT N
INHERITANCE PCB
ECO_REGISTRATION N
READONLY Y
SYSTEM Y
HIDDEN Y
}
ATTRIBUTE AutoDimensioning.Text_AngularPrecision
{
TYPE FREETEXT N
INHERITANCE PCB
ECO_REGISTRATION N
READONLY Y
SYSTEM Y
HIDDEN Y
}
ATTRIBUTE AutoDimensioning.Text_Suffix
{
TYPE FREETEXT N
INHERITANCE PCB
ECO_REGISTRATION N
READONLY Y
SYSTEM Y
HIDDEN Y
}
ATTRIBUTE AutoDimensioning.Text_Layer
{
TYPE INTEGER
MIN 0
MAX 250
INHERITANCE PCB
ECO_REGISTRATION N
READONLY Y
SYSTEM Y
HIDDEN Y
}
ATTRIBUTE AutoDimensioning.Line_Layer
{
TYPE INTEGER
MIN 0
MAX 250
INHERITANCE PCB
ECO_REGISTRATION N
READONLY Y
SYSTEM Y
HIDDEN Y
}
ATTRIBUTE AutoDimensioning.Preview_Type
{
TYPE INTEGER
MIN 1
MAX 5
INHERITANCE PCB
ECO_REGISTRATION N
READONLY Y
SYSTEM Y
HIDDEN Y
}
}
ATTRIBUTE VALUES
{
PCB DEFAULT
{
DFT."Probe to Trace Clearance" 0.15240mm
DFT."Probe to Pad Clearance" 0.15240mm
DFT."Generate Test Points" No
DFT."Allow Stubs" Yes
DFT."Stub Length" 3.81000mm
DFT."Use Via Grid" Yes
DFT."Grid X-Coordinate" 0.63500mm
DFT."Grid Y-Coordinate" 0.63500mm
AutoDimensioning.Marker_Shape YYNNNY
AutoDimensioning.Text_NumberPrecision 0 1 2
AutoDimensioning.Text_AngularPrecision 0 0 0
AutoDimensioning.Text_Suffix mil##mm##"
AutoDimensioning.Text_Layer 24
AutoDimensioning.Line_Layer 24
AutoDimensioning.Preview_Type 1
}
}

*END*     OF ASCII OUTPUT FILE
